EESchema Schematic File Version 2
LIBS:power
LIBS:device
LIBS:transistors
LIBS:conn
LIBS:linear
LIBS:regul
LIBS:74xx
LIBS:cmos4000
LIBS:adc-dac
LIBS:memory
LIBS:xilinx
LIBS:special
LIBS:microcontrollers
LIBS:dsp
LIBS:microchip
LIBS:analog_switches
LIBS:motorola
LIBS:texas
LIBS:intel
LIBS:audio
LIBS:interface
LIBS:digital-audio
LIBS:philips
LIBS:display
LIBS:cypress
LIBS:siliconi
LIBS:opto
LIBS:atmel
LIBS:contrib
LIBS:valves
LIBS:arduino_shieldsNCL
LIBS:bmp085
LIBS:dht22
LIBS:ds1307
LIBS:ldr
LIBS:array_2x1
LIBS:array_4x1
LIBS:array_3x1
LIBS:array_7x1
LIBS:meteorolog-cache
EELAYER 24 0
EELAYER END
$Descr A4 11693 8268
encoding utf-8
Sheet 1 1
Title ""
Date "7 nov 2013"
Rev ""
Comp ""
Comment1 ""
Comment2 ""
Comment3 ""
Comment4 ""
$EndDescr
$Comp
L R R4
U 1 1 527BDC33
P 5350 6300
F 0 "R4" V 5430 6300 50  0000 C CNN
F 1 "4k7" V 5350 6300 50  0000 C CNN
F 2 "" H 5350 6300 60  0001 C CNN
F 3 "" H 5350 6300 60  0001 C CNN
	1    5350 6300
	-1   0    0    1   
$EndComp
$Comp
L DHT22 D1
U 1 1 527BDBE3
P 5800 6450
F 0 "D1" H 6200 6250 60  0000 C CNN
F 1 "DHT22" H 6000 6750 60  0000 C CNN
F 2 "" H 5800 6450 60  0001 C CNN
F 3 "" H 5800 6450 60  0001 C CNN
	1    5800 6450
	0    1    1    0   
$EndComp
$Comp
L ARRAY_7X1 P6
U 1 1 527948EC
P 7300 4250
F 0 "P6" H 7300 3850 60  0000 C CNN
F 1 "ARRAY_7X1" H 7300 4350 60  0000 C CNN
F 2 "" H 7300 4250 60  0001 C CNN
F 3 "" H 7300 4250 60  0001 C CNN
	1    7300 4250
	0    1    1    0   
$EndComp
$Comp
L ARRAY_3X1 P4
U 1 1 527948E3
P 7200 4850
F 0 "P4" H 7200 4600 60  0000 C CNN
F 1 "ARRAY_3X1" H 7200 5050 60  0000 C CNN
F 2 "" H 7200 4850 60  0001 C CNN
F 3 "" H 7200 4850 60  0001 C CNN
	1    7200 4850
	0    1    1    0   
$EndComp
$Comp
L ARRAY_3X1 P2
U 1 1 527948CE
P 3950 3950
F 0 "P2" H 3950 3700 60  0000 C CNN
F 1 "ARRAY_3X1" H 3950 4150 60  0000 C CNN
F 2 "" H 3950 3950 60  0001 C CNN
F 3 "" H 3950 3950 60  0001 C CNN
	1    3950 3950
	0    -1   -1   0   
$EndComp
$Comp
L ARRAY_4X1 P5
U 1 1 52794430
P 7250 5300
F 0 "P5" H 7250 5050 60  0000 C CNN
F 1 "ARRAY_4X1" H 7250 5500 60  0000 C CNN
F 2 "" H 7250 5300 60  0001 C CNN
F 3 "" H 7250 5300 60  0001 C CNN
	1    7250 5300
	0    1    1    0   
$EndComp
$Comp
L LDR LDR1
U 1 1 52446E71
P 6900 6300
F 0 "LDR1" H 6900 6050 60  0000 C CNN
F 1 "LDR" H 6900 6650 60  0000 C CNN
F 2 "" H 6900 6300 60  0001 C CNN
F 3 "" H 6900 6300 60  0001 C CNN
	1    6900 6300
	1    0    0    -1  
$EndComp
$Comp
L BMP085 B1
U 1 1 524B1051
P 4100 3050
F 0 "B1" H 4150 2650 60  0000 C CNN
F 1 "BMP085" H 4300 3150 60  0000 C CNN
F 2 "" H 4100 3050 60  0001 C CNN
F 3 "" H 4100 3050 60  0001 C CNN
	1    4100 3050
	-1   0    0    -1  
$EndComp
$Comp
L R R3
U 1 1 52446F17
P 6300 5950
F 0 "R3" V 6380 5950 50  0000 C CNN
F 1 "100k" V 6300 5950 50  0000 C CNN
F 2 "" H 6300 5950 60  0001 C CNN
F 3 "" H 6300 5950 60  0001 C CNN
	1    6300 5950
	0    -1   -1   0   
$EndComp
$Comp
L DS1307 CLOCK1
U 1 1 52446BE7
P 6350 2650
F 0 "CLOCK1" H 6750 2650 60  0000 C CNN
F 1 "DS1307" H 6300 3300 60  0000 C CNN
F 2 "" H 6350 2650 60  0001 C CNN
F 3 "" H 6350 2650 60  0001 C CNN
	1    6350 2650
	0    -1   1    0   
$EndComp
$Comp
L CRYSTAL X1
U 1 1 5241FAB9
P 5850 1800
F 0 "X1" H 5850 1950 60  0000 C CNN
F 1 "CRYSTAL" H 5850 1650 60  0000 C CNN
F 2 "" H 5850 1800 60  0001 C CNN
F 3 "" H 5850 1800 60  0001 C CNN
	1    5850 1800
	1    0    0    -1  
$EndComp
$Comp
L BATTERY BT1
U 1 1 5241FA9B
P 6500 2050
F 0 "BT1" H 6500 2250 50  0000 C CNN
F 1 "BATTERY" H 6500 1860 50  0000 C CNN
F 2 "" H 6500 2050 60  0001 C CNN
F 3 "" H 6500 2050 60  0001 C CNN
	1    6500 2050
	1    0    0    -1  
$EndComp
$Comp
L R R2
U 1 1 5241F9D9
P 3800 4850
F 0 "R2" V 3880 4850 50  0000 C CNN
F 1 "2k2" V 3800 4850 50  0000 C CNN
F 2 "" H 3800 4850 60  0001 C CNN
F 3 "" H 3800 4850 60  0001 C CNN
	1    3800 4850
	0    -1   -1   0   
$EndComp
$Comp
L R R1
U 1 1 5241F995
P 3900 4700
F 0 "R1" V 3980 4700 50  0000 C CNN
F 1 "2k2" V 3900 4700 50  0000 C CNN
F 2 "" H 3900 4700 60  0001 C CNN
F 3 "" H 3900 4700 60  0001 C CNN
	1    3900 4700
	0    -1   -1   0   
$EndComp
$Comp
L ARDUINO_SHIELD SHIELD1
U 1 1 5241C9B4
P 6050 4650
F 0 "SHIELD1" H 5700 5600 60  0000 C CNN
F 1 "ARDUINO_SHIELD" H 6100 3700 60  0000 C CNN
F 2 "" H 6050 4650 60  0001 C CNN
F 3 "" H 6050 4650 60  0001 C CNN
	1    6050 4650
	1    0    0    -1  
$EndComp
$Comp
L ARRAY_3X1 P1
U 1 1 52BCDF9A
P 3700 5150
F 0 "P1" H 3700 4900 60  0000 C CNN
F 1 "ARRAY_3X1" H 3700 5350 60  0000 C CNN
F 2 "" H 3700 5150 60  0000 C CNN
F 3 "" H 3700 5150 60  0000 C CNN
	1    3700 5150
	0    -1   -1   0   
$EndComp
Connection ~ 5900 6050
Wire Wire Line
	5350 6050 5900 6050
Connection ~ 6000 5950
Wire Wire Line
	6000 6200 6000 5950
Wire Wire Line
	6000 3400 6000 3500
Wire Wire Line
	6000 3500 4700 3500
Wire Wire Line
	4700 3250 4700 5450
Wire Wire Line
	6000 2200 6000 2050
Wire Wire Line
	6000 2050 6150 2050
Wire Wire Line
	6150 2050 6150 1800
Wire Wire Line
	6200 2050 6200 2200
Wire Wire Line
	4600 3350 4600 5350
Connection ~ 4950 4700
Wire Wire Line
	4600 5350 5100 5350
Connection ~ 4900 4550
Wire Wire Line
	4900 3150 4900 4550
Wire Wire Line
	4850 4550 5100 4550
Wire Wire Line
	4850 4550 4850 5700
Wire Wire Line
	6050 5950 4950 5950
Wire Wire Line
	4950 3050 4950 4350
Wire Wire Line
	4950 4350 5100 4350
Wire Wire Line
	7250 5050 7250 5750
Wire Wire Line
	7250 5050 7000 5050
Wire Wire Line
	4950 5950 4950 4450
Wire Wire Line
	4850 4450 5100 4450
Wire Wire Line
	4700 5450 5100 5450
Connection ~ 4700 4400
Connection ~ 4950 4850
Wire Wire Line
	5450 2800 5050 2800
Wire Wire Line
	5050 2800 5050 4450
Connection ~ 5050 4450
Wire Wire Line
	6800 2050 6800 2800
Connection ~ 6800 2800
Wire Wire Line
	5550 1800 5550 2050
Wire Wire Line
	5550 2050 5850 2050
Wire Wire Line
	5850 2050 5850 2200
Wire Wire Line
	4600 3600 6200 3600
Wire Wire Line
	6200 3600 6200 3400
Wire Wire Line
	6700 5950 6700 5600
Connection ~ 6700 5950
Wire Wire Line
	6700 5600 5000 5600
Wire Wire Line
	5000 5600 5000 4950
Wire Wire Line
	7250 5750 5900 5750
Wire Wire Line
	5900 5750 5900 6200
Wire Wire Line
	4850 5700 5700 5700
Wire Wire Line
	5700 5700 5700 6200
Wire Wire Line
	5350 6550 5550 6550
Wire Wire Line
	5550 6550 5550 6100
Wire Wire Line
	5550 6100 6000 6100
Connection ~ 6000 6100
Wire Wire Line
	6550 5950 7400 5950
Wire Wire Line
	7400 5950 7400 6200
Wire Wire Line
	6400 6350 6400 7050
Wire Wire Line
	6400 7050 4100 7050
Wire Wire Line
	4100 7050 4100 4550
Wire Wire Line
	4100 4550 4900 4550
Wire Wire Line
	5000 4950 5100 4950
Wire Wire Line
	3900 5050 5100 5050
Wire Wire Line
	3900 5150 5100 5150
Wire Wire Line
	3900 5250 5100 5250
Wire Wire Line
	4050 4850 4950 4850
Wire Wire Line
	3550 4850 3550 4400
Wire Wire Line
	3550 4400 4700 4400
Wire Wire Line
	3650 4700 3650 4450
Wire Wire Line
	3650 4450 4600 4450
Connection ~ 4600 4450
Wire Wire Line
	4150 4700 4950 4700
Wire Wire Line
	4400 3350 4600 3350
Connection ~ 4600 3600
Wire Wire Line
	4400 3250 4700 3250
Connection ~ 4700 3500
Wire Wire Line
	4400 3150 4900 3150
Wire Wire Line
	4400 3050 4950 3050
Wire Wire Line
	4150 3850 4950 3850
Connection ~ 4950 3850
Wire Wire Line
	4150 3950 4850 3950
Wire Wire Line
	4850 3950 4850 4450
Connection ~ 4950 4450
Connection ~ 4850 4550
Wire Wire Line
	4150 4050 4750 4050
Wire Wire Line
	4750 4050 4750 4550
Connection ~ 4750 4550
Wire Wire Line
	6600 2800 7100 2800
Wire Wire Line
	7100 2800 7100 3950
Wire Wire Line
	7100 3950 7000 3950
$EndSCHEMATC
